Exp_2000.csv

X,CH1,CH2,Start,Increment,
Sequence,Volt,Volt,-6.000000e-04,1.000000e-06
0,-1.60e+00,1.60e-02,
1,-2.00e+00,8.00e-03,
2,-1.60e+00,1.40e-02,
3,-2.00e+00,8.00e-03,
4,-1.60e+00,1.40e-02,
5,-2.00e+00,6.00e-03,
6,-1.60e+00,1.20e-02,
7,-2.00e+00,4.00e-03,
8,-2.00e+00,1.20e-02,
9,-1.60e+00,4.00e-03,
10,-2.00e+00,1.00e-02,
11,-1.40e+00,2.00e-03,
12,-2.00e+00,1.00e-02,
13,-1.40e+00,2.00e-03,
14,-2.00e+00,8.00e-03,
15,-1.40e+00,2.00e-03,
16,-1.40e+00,8.00e-03,
17,-2.00e+00,0.00e+00,
18,-1.40e+00,6.00e-03,
19,-2.00e+00,0.00e+00,
20,-1.40e+00,6.00e-03,
21,-2.00e+00,-2.00e-03,
22,-1.80e+00,-2.00e-03,
23,-1.40e+00,4.00e-03,
24,-1.40e+00,4.00e-03,
25,-1.80e+00,-4.00e-03,
26,-1.80e+00,2.00e-03,
27,-1.40e+00,-6.00e-03,
28,-1.40e+00,2.00e-03,
29,-1.80e+00,-8.00e-03,
30,-1.80e+00,0.00e+00,
31,-1.40e+00,-1.00e-02,
32,-1.40e+00,-2.00e-03,
33,-1.80e+00,-1.00e-02,
34,-1.80e+00,-1.00e-02,
35,-1.20e+00,-2.00e-03,
36,-1.20e+00,-4.00e-03,
37,-1.80e+00,-1.20e-02,
38,-1.20e+00,-6.00e-03,
39,-1.80e+00,-1.40e-02,
40,-1.20e+00,-6.00e-03,
41,-1.80e+00,-1.40e-02,
42,-1.20e+00,-6.00e-03,
43,-1.60e+00,-1.40e-02,
44,-1.20e+00,-8.00e-03,
45,-1.60e+00,-1.60e-02,
46,-1.60e+00,-1.60e-02,
47,-1.00e+00,-8.00e-03,
48,-1.60e+00,-8.00e-03,
49,-1.00e+00,-2.00e-02,
50,-1.00e+00,-1.00e-02,
51,-1.60e+00,-1.80e-02,
52,-1.00e+00,-1.20e-02,
53,-1.40e+00,-2.00e-02,
54,-1.00e+00,-2.20e-02,
55,-1.40e+00,-1.20e-02,
56,-1.00e+00,-1.40e-02,
57,-1.40e+00,-2.20e-02,
58,-1.00e+00,-2.20e-02,
59,-1.40e+00,-1.40e-02,
60,-1.40e+00,-1.60e-02,
61,-8.00e-01,-2.40e-02,
62,-1.40e+00,-1.60e-02,
63,-8.00e-01,-2.60e-02,
64,-1.20e+00,-2.60e-02,
65,-6.00e-01,-1.80e-02,
66,-1.00e+00,-1.80e-02,
67,-6.00e-01,-2.80e-02,
68,-1.00e+00,-2.00e-02,
69,-6.00e-01,-2.80e-02,
70,-1.00e+00,-2.00e-02,
71,-6.00e-01,-3.00e-02,
72,-1.20e+00,-2.20e-02,
73,-4.00e-01,-3.00e-02,
74,-1.00e+00,-2.20e-02,
75,-4.00e-01,-3.20e-02,
76,-8.00e-01,-2.40e-02,
77,-4.00e-01,-3.00e-02,
78,-8.00e-01,-2.40e-02,
79,-4.00e-01,-3.20e-02,
80,-8.00e-01,-3.20e-02,
81,-4.00e-01,-2.40e-02,
82,-8.00e-01,-2.40e-02,
83,-2.00e-01,-3.40e-02,
84,-8.00e-01,-3.40e-02,
85,-2.00e-01,-2.60e-02,
86,-2.00e-01,-2.60e-02,
87,-8.00e-01,-3.60e-02,
88,-6.00e-01,-2.80e-02,
89,-2.00e-01,-3.60e-02,
90,-2.00e-01,-2.80e-02,
91,-6.00e-01,-3.60e-02,
92,-2.00e-01,-2.80e-02,
93,-6.00e-01,-3.80e-02,
94,-6.00e-01,-2.80e-02,
95,0.00e+00,-3.80e-02,
96,0.00e+00,-3.00e-02,
97,-6.00e-01,-3.80e-02,
98,0.00e+00,-3.00e-02,
99,-4.00e-01,-3.80e-02,
100,-4.00e-01,-4.00e-02,
101,0.00e+00,-3.00e-02,
102,-4.00e-01,-3.20e-02,
103,0.00e+00,-4.00e-02,
104,-4.00e-01,-4.00e-02,
105,2.00e-01,-3.20e-02,
106,2.00e-01,-3.40e-02,
107,-4.00e-01,-4.20e-02,
108,-2.00e-01,-4.20e-02,
109,2.00e-01,-3.20e-02,
110,2.00e-01,-3.40e-02,
111,-2.00e-01,-4.20e-02,
112,-2.00e-01,-4.20e-02,
113,4.00e-01,-3.40e-02,
114,-2.00e-01,-4.40e-02,
115,4.00e-01,-3.40e-02,
116,-2.00e-01,-3.60e-02,
117,4.00e-01,-4.40e-02,
118,4.00e-01,-4.20e-02,
119,0.00e+00,-3.40e-02,
120,0.00e+00,-4.40e-02,
121,4.00e-01,-3.40e-02,
122,0.00e+00,-3.60e-02,
123,6.00e-01,-4.40e-02,
124,0.00e+00,-3.60e-02,
125,6.00e-01,-4.60e-02,
126,6.00e-01,-3.60e-02,
127,2.00e-01,-4.60e-02,
128,6.00e-01,-3.60e-02,
129,2.00e-01,-4.40e-02,
130,6.00e-01,-3.80e-02,
131,2.00e-01,-4.60e-02,
132,2.00e-01,-3.60e-02,
133,8.00e-01,-4.40e-02,
134,8.00e-01,-3.80e-02,
135,2.00e-01,-4.60e-02,
136,8.00e-01,-4.60e-02,
137,2.00e-01,-3.60e-02,
138,8.00e-01,-3.80e-02,
139,4.00e-01,-4.60e-02,
140,8.00e-01,-4.60e-02,
141,4.00e-01,-3.60e-02,
142,4.00e-01,-3.60e-02,
143,1.00e+00,-4.60e-02,
144,4.00e-01,-4.60e-02,
145,1.00e+00,-3.60e-02,
146,1.00e+00,-4.60e-02,
147,4.00e-01,-3.60e-02,
148,1.00e+00,-4.60e-02,
149,6.00e-01,-3.60e-02,
150,1.00e+00,-3.80e-02,
151,6.00e-01,-4.60e-02,
152,6.00e-01,-4.60e-02,
153,1.20e+00,-3.60e-02,
154,6.00e-01,-3.60e-02,
155,1.20e+00,-4.60e-02,
156,6.00e-01,-4.60e-02,
157,1.20e+00,-3.60e-02,
158,1.20e+00,-4.40e-02,
159,6.00e-01,-3.60e-02,
160,1.20e+00,-3.60e-02,
161,8.00e-01,-4.60e-02,
162,1.40e+00,-4.40e-02,
163,8.00e-01,-3.60e-02,
164,8.00e-01,-3.60e-02,
165,1.40e+00,-4.60e-02,
166,8.00e-01,-4.60e-02,
167,1.40e+00,-3.40e-02,
168,1.40e+00,-4.40e-02,
169,8.00e-01,-3.60e-02,
170,8.00e-01,-4.20e-02,
171,1.40e+00,-3.40e-02,
172,8.00e-01,-3.60e-02,
173,1.60e+00,-4.40e-02,
174,1.60e+00,-4.20e-02,
175,1.00e+00,-3.40e-02,
176,1.20e+00,-3.40e-02,
177,1.60e+00,-4.20e-02,
178,1.20e+00,-3.40e-02,
179,1.60e+00,-4.20e-02,
180,1.20e+00,-3.40e-02,
181,1.60e+00,-4.20e-02,
182,1.20e+00,-4.00e-02,
183,1.60e+00,-3.40e-02,
184,1.20e+00,-4.00e-02,
185,1.60e+00,-3.20e-02,
186,1.60e+00,-3.20e-02,
187,1.20e+00,-4.00e-02,
188,1.20e+00,-3.80e-02,
189,1.80e+00,-3.00e-02,
190,1.20e+00,-3.80e-02,
191,1.80e+00,-3.00e-02,
192,1.20e+00,-3.00e-02,
193,1.80e+00,-3.80e-02,
194,1.80e+00,-3.60e-02,
195,1.20e+00,-2.80e-02,
196,1.80e+00,-3.60e-02,
197,1.20e+00,-2.80e-02,
198,1.40e+00,-2.80e-02,
199,1.80e+00,-3.60e-02,
200,1.80e+00,-2.80e-02,
201,1.40e+00,-3.40e-02,
202,1.40e+00,-3.40e-02,
203,1.80e+00,-2.60e-02,
204,1.80e+00,-3.20e-02,
205,1.40e+00,-2.60e-02,
206,1.80e+00,-3.40e-02,
207,1.40e+00,-2.40e-02,
208,1.40e+00,-2.40e-02,
209,1.80e+00,-3.20e-02,
210,1.40e+00,-3.00e-02,
211,1.80e+00,-2.20e-02,
212,1.40e+00,-3.00e-02,
213,2.00e+00,-2.20e-02,
214,1.40e+00,-2.20e-02,
215,2.00e+00,-3.00e-02,
216,1.40e+00,-2.00e-02,
217,2.00e+00,-3.00e-02,
218,2.00e+00,-2.80e-02,
219,1.40e+00,-1.80e-02,
220,1.40e+00,-2.60e-02,
221,2.00e+00,-1.80e-02,
222,1.40e+00,-1.80e-02,
223,2.00e+00,-2.60e-02,
224,1.40e+00,-2.60e-02,
225,2.00e+00,-1.60e-02,
226,1.40e+00,-2.20e-02,
227,2.00e+00,-1.60e-02,
228,1.40e+00,-2.40e-02,
229,2.00e+00,-1.40e-02,
230,1.40e+00,-2.20e-02,
231,2.00e+00,-1.40e-02,
232,1.40e+00,-2.00e-02,
233,2.00e+00,-1.20e-02,
234,2.00e+00,-2.00e-02,
235,1.40e+00,-1.20e-02,
236,1.40e+00,-1.20e-02,
237,1.80e+00,-2.00e-02,
238,1.40e+00,-1.80e-02,
239,2.00e+00,-1.00e-02,
240,1.40e+00,-1.60e-02,
241,2.00e+00,-8.00e-03,
242,1.40e+00,-1.60e-02,
243,1.80e+00,-8.00e-03,
244,1.40e+00,-1.60e-02,
245,2.00e+00,-8.00e-03,
246,1.40e+00,-6.00e-03,
247,1.80e+00,-1.40e-02,
248,1.40e+00,-1.40e-02,
249,2.00e+00,-4.00e-03,
250,1.40e+00,-1.20e-02,
251,1.80e+00,-4.00e-03,
252,1.40e+00,-4.00e-03,
253,1.80e+00,-1.20e-02,
254,1.40e+00,-8.00e-03,
255,1.80e+00,0.00e+00,
256,1.80e+00,-2.00e-03,
257,1.40e+00,-1.00e-02,
258,1.40e+00,2.00e-03,
259,1.80e+00,-8.00e-03,
260,1.80e+00,2.00e-03,
261,1.40e+00,-6.00e-03,
262,1.40e+00,-4.00e-03,
263,1.80e+00,4.00e-03,
264,1.80e+00,-2.00e-03,
265,1.20e+00,4.00e-03,
266,1.20e+00,-2.00e-03,
267,1.80e+00,6.00e-03,
268,1.80e+00,-2.00e-03,
269,1.20e+00,8.00e-03,
270,1.20e+00,0.00e+00,
271,1.80e+00,8.00e-03,
272,1.20e+00,0.00e+00,
273,1.80e+00,1.00e-02,
274,1.20e+00,2.00e-03,
275,1.60e+00,1.00e-02,
276,1.20e+00,4.00e-03,
277,1.60e+00,1.00e-02,
278,1.60e+00,1.20e-02,
279,1.00e+00,4.00e-03,
280,1.60e+00,6.00e-03,
281,1.00e+00,1.20e-02,
282,1.60e+00,6.00e-03,
283,8.00e-01,1.40e-02,
284,1.60e+00,6.00e-03,
285,8.00e-01,1.40e-02,
286,8.00e-01,8.00e-03,
287,1.60e+00,1.60e-02,
288,1.60e+00,1.00e-02,
289,8.00e-01,1.60e-02,
290,8.00e-01,1.00e-02,
291,1.40e+00,1.80e-02,
292,8.00e-01,1.00e-02,
293,1.40e+00,2.00e-02,
294,8.00e-01,1.20e-02,
295,1.40e+00,2.20e-02,
296,1.40e+00,1.60e-02,
297,8.00e-01,2.20e-02,
298,1.20e+00,1.40e-02,
299,6.00e-01,2.40e-02,
300,1.20e+00,1.80e-02,
301,6.00e-01,2.40e-02,
302,6.00e-01,1.80e-02,
303,1.20e+00,2.60e-02,
304,1.20e+00,2.60e-02,
305,6.00e-01,1.80e-02,
306,6.00e-01,2.00e-02,
307,1.00e+00,2.80e-02,
308,1.00e+00,2.80e-02,
309,6.00e-01,2.00e-02,
310,1.00e+00,2.80e-02,
311,6.00e-01,2.20e-02,
312,1.00e+00,2.20e-02,
313,4.00e-01,3.00e-02,
314,4.00e-01,3.00e-02,
315,1.00e+00,2.20e-02,
316,8.00e-01,2.40e-02,
317,4.00e-01,3.20e-02,
318,8.00e-01,2.40e-02,
319,4.00e-01,3.20e-02,
320,8.00e-01,3.20e-02,
321,4.00e-01,2.60e-02,
322,8.00e-01,2.60e-02,
323,2.00e-01,3.40e-02,
324,8.00e-01,2.60e-02,
325,2.00e-01,3.40e-02,
326,2.00e-01,2.80e-02,
327,8.00e-01,3.40e-02,
328,6.00e-01,2.80e-02,
329,2.00e-01,3.60e-02,
330,6.00e-01,2.80e-02,
331,2.00e-01,3.60e-02,
332,6.00e-01,3.00e-02,
333,0.00e+00,3.80e-02,
334,6.00e-01,3.00e-02,
335,0.00e+00,3.80e-02,
336,0.00e+00,3.20e-02,
337,6.00e-01,4.00e-02,
338,0.00e+00,3.20e-02,
339,4.00e-01,4.20e-02,
340,0.00e+00,3.40e-02,
341,4.00e-01,4.20e-02,
342,4.00e-01,3.60e-02,
343,-2.00e-01,4.20e-02,
344,4.00e-01,3.60e-02,
345,-2.00e-01,4.40e-02,
346,-2.00e-01,4.40e-02,
347,4.00e-01,3.60e-02,
348,2.00e-01,3.80e-02,
349,-2.00e-01,4.40e-02,
350,-2.00e-01,3.80e-02,
351,2.00e-01,4.60e-02,
352,2.00e-01,3.80e-02,
353,-2.00e-01,4.60e-02,
354,2.00e-01,4.60e-02,
355,-4.00e-01,3.80e-02,
356,2.00e-01,4.00e-02,
357,-4.00e-01,4.60e-02,
358,-4.00e-01,4.60e-02,
359,0.00e+00,4.00e-02,
360,0.00e+00,4.00e-02,
361,-6.00e-01,4.60e-02,
362,-6.00e-01,4.00e-02,
363,0.00e+00,4.80e-02,
364,0.00e+00,4.00e-02,
365,-6.00e-01,4.80e-02,
366,-6.00e-01,4.00e-02,
367,-2.00e-01,4.80e-02,
368,-2.00e-01,4.80e-02,
369,-8.00e-01,4.00e-02,
370,-6.00e-01,4.20e-02,
371,-2.00e-01,4.80e-02,
372,-2.00e-01,4.80e-02,
373,-8.00e-01,4.00e-02,
374,-8.00e-01,4.80e-02,
375,-2.00e-01,4.20e-02,
376,-8.00e-01,4.20e-02,
377,-2.00e-01,5.00e-02,
378,-8.00e-01,4.20e-02,
379,-4.00e-01,5.00e-02,
380,-8.00e-01,5.00e-02,
381,-4.00e-01,4.20e-02,
382,-8.00e-01,4.20e-02,
383,-4.00e-01,5.00e-02,
384,-4.00e-01,5.00e-02,
385,-1.00e+00,4.40e-02,
386,-4.00e-01,5.00e-02,
387,-1.20e+00,4.40e-02,
388,-1.00e+00,4.40e-02,
389,-4.00e-01,5.20e-02,
390,-1.00e+00,4.40e-02,
391,-6.00e-01,5.20e-02,
392,-6.00e-01,4.40e-02,
393,-1.00e+00,5.00e-02,
394,-6.00e-01,4.40e-02,
395,-1.20e+00,5.00e-02,
396,-6.00e-01,4.40e-02,
397,-1.40e+00,5.00e-02,
398,-6.00e-01,5.00e-02,
399,-1.40e+00,4.40e-02,
400,-8.00e-01,5.00e-02,
401,-1.40e+00,4.20e-02,
402,-1.00e+00,5.00e-02,
403,-1.40e+00,4.20e-02,
404,-1.00e+00,5.00e-02,
405,-1.40e+00,4.20e-02,
406,-1.00e+00,5.00e-02,
407,-1.60e+00,4.20e-02,
408,-1.60e+00,5.00e-02,
409,-1.00e+00,4.20e-02,
410,-1.60e+00,4.80e-02,
411,-1.00e+00,4.20e-02,
412,-1.60e+00,4.20e-02,
413,-1.20e+00,5.00e-02,
414,-1.20e+00,4.20e-02,
415,-1.60e+00,4.80e-02,
416,-1.20e+00,4.80e-02,
417,-1.60e+00,4.00e-02,
418,-1.20e+00,4.20e-02,
419,-1.60e+00,4.80e-02,
420,-1.20e+00,4.80e-02,
421,-1.80e+00,4.00e-02,
422,-1.20e+00,4.60e-02,
423,-1.80e+00,4.00e-02,
424,-1.80e+00,4.60e-02,
425,-1.40e+00,4.00e-02,
426,-1.80e+00,4.00e-02,
427,-1.20e+00,4.60e-02,
428,-1.40e+00,4.60e-02,
429,-1.80e+00,4.00e-02,
430,-1.80e+00,4.60e-02,
431,-1.40e+00,3.80e-02,
432,-1.40e+00,4.60e-02,
433,-1.80e+00,3.80e-02,
434,-1.80e+00,3.80e-02,
435,-1.40e+00,4.60e-02,
436,-1.40e+00,4.40e-02,
437,-2.00e+00,3.80e-02,
438,-1.40e+00,4.40e-02,
439,-2.00e+00,3.60e-02,
440,-1.40e+00,4.40e-02,
441,-2.00e+00,3.60e-02,
442,-2.00e+00,4.40e-02,
443,-1.40e+00,3.60e-02,
444,-2.00e+00,4.20e-02,
445,-1.40e+00,3.60e-02,
446,-2.00e+00,4.20e-02,
447,-1.40e+00,3.40e-02,
448,-2.00e+00,4.20e-02,
449,-1.40e+00,3.20e-02,
450,-2.00e+00,4.20e-02,
451,-1.60e+00,3.20e-02,
452,-1.60e+00,3.20e-02,
453,-2.00e+00,4.00e-02,
454,-1.60e+00,4.00e-02,
455,-2.00e+00,3.00e-02,
456,-1.60e+00,3.60e-02,
457,-2.00e+00,3.00e-02,
458,-1.60e+00,3.60e-02,
459,-2.00e+00,3.00e-02,
460,-2.00e+00,3.80e-02,
461,-1.60e+00,2.80e-02,
462,-1.60e+00,3.40e-02,
463,-2.20e+00,2.80e-02,
464,-1.60e+00,3.40e-02,
465,-2.20e+00,2.60e-02,
466,-1.60e+00,3.20e-02,
467,-2.20e+00,2.60e-02,
468,-1.60e+00,3.20e-02,
469,-2.20e+00,2.40e-02,
470,-2.20e+00,3.20e-02,
471,-1.60e+00,2.20e-02,
472,-1.60e+00,3.00e-02,
473,-2.20e+00,2.20e-02,
474,-2.20e+00,2.20e-02,
475,-1.60e+00,3.00e-02,
476,-2.20e+00,2.80e-02,
477,-1.60e+00,2.00e-02,
478,-2.20e+00,2.60e-02,
479,-1.60e+00,2.00e-02,
480,-2.20e+00,2.60e-02,
481,-1.60e+00,1.80e-02,
482,-1.60e+00,2.60e-02,
483,-2.20e+00,1.80e-02,
484,-1.60e+00,2.60e-02,
485,-2.20e+00,1.80e-02,
486,-1.60e+00,2.40e-02,
487,-2.20e+00,1.60e-02,
488,-1.60e+00,1.60e-02,
489,-2.20e+00,2.20e-02,
490,-2.20e+00,1.40e-02,
491,-1.60e+00,2.20e-02,
492,-1.60e+00,1.20e-02,
493,-2.20e+00,2.00e-02,
494,-1.60e+00,2.00e-02,
495,-2.20e+00,1.00e-02,
496,-1.60e+00,1.80e-02,
497,-2.00e+00,1.00e-02,
498,-1.60e+00,1.60e-02,
499,-2.00e+00,8.00e-03,
500,-1.60e+00,1.60e-02,
501,-2.20e+00,8.00e-03,
502,-1.60e+00,1.40e-02,
503,-2.20e+00,6.00e-03,
504,-1.60e+00,6.00e-03,
505,-2.00e+00,1.40e-02,
506,-2.00e+00,1.40e-02,
507,-1.60e+00,4.00e-03,
508,-1.60e+00,4.00e-03,
509,-2.00e+00,1.20e-02,
510,-1.60e+00,1.00e-02,
511,-2.00e+00,2.00e-03,
512,-1.60e+00,2.00e-03,
513,-2.00e+00,1.00e-02,
514,-1.60e+00,8.00e-03,
515,-2.00e+00,0.00e+00,
516,-2.00e+00,8.00e-03,
517,-1.40e+00,0.00e+00,
518,-1.40e+00,6.00e-03,
519,-2.00e+00,-2.00e-03,
520,-1.40e+00,-2.00e-03,
521,-2.00e+00,4.00e-03,
522,-1.40e+00,4.00e-03,
523,-2.00e+00,-4.00e-03,
524,-1.40e+00,-4.00e-03,
525,-2.00e+00,4.00e-03,
526,-1.40e+00,-6.00e-03,
527,-1.80e+00,2.00e-03,
528,-1.80e+00,2.00e-03,
529,-1.40e+00,-8.00e-03,
530,-1.40e+00,0.00e+00,
531,-1.80e+00,-1.00e-02,
532,-1.80e+00,0.00e+00,
533,-1.40e+00,-1.00e-02,
534,-1.80e+00,-4.00e-03,
535,-1.20e+00,-1.20e-02,
536,-1.80e+00,-1.20e-02,
537,-1.20e+00,-4.00e-03,
538,-1.20e+00,-6.00e-03,
539,-1.80e+00,-1.20e-02,
540,-1.20e+00,-6.00e-03,
541,-1.60e+00,-1.40e-02,
542,-1.20e+00,-6.00e-03,
543,-1.60e+00,-1.40e-02,
544,-1.20e+00,-8.00e-03,
545,-1.60e+00,-1.60e-02,
546,-1.20e+00,-1.00e-02,
547,-1.60e+00,-1.60e-02,
548,-1.60e+00,-1.00e-02,
549,-1.00e+00,-1.80e-02,
550,-1.60e+00,-1.20e-02,
551,-1.00e+00,-1.80e-02,
552,-1.00e+00,-1.20e-02,
553,-1.60e+00,-2.00e-02,
554,-1.00e+00,-2.00e-02,
555,-1.60e+00,-1.40e-02,
556,-1.00e+00,-1.40e-02,
557,-1.40e+00,-2.20e-02,
558,-1.00e+00,-1.40e-02,
559,-1.40e+00,-2.20e-02,
560,-1.40e+00,-1.40e-02,
561,-8.00e-01,-2.40e-02,
562,-1.20e+00,-1.60e-02,
563,-6.00e-01,-2.60e-02,
564,-6.00e-01,-1.60e-02,
565,-1.40e+00,-2.60e-02,
566,-1.20e+00,-2.80e-02,
567,-6.00e-01,-1.80e-02,
568,-6.00e-01,-2.80e-02,
569,-1.00e+00,-2.00e-02,
570,-1.00e+00,-2.80e-02,
571,-6.00e-01,-2.00e-02,
572,-1.00e+00,-3.00e-02,
573,-4.00e-01,-2.00e-02,
574,-1.00e+00,-2.40e-02,
575,-4.00e-01,-3.20e-02,
576,-8.00e-01,-2.40e-02,
577,-4.00e-01,-3.20e-02,
578,-4.00e-01,-2.40e-02,
579,-8.00e-01,-3.20e-02,
580,-8.00e-01,-2.60e-02,
581,-4.00e-01,-3.40e-02,
582,-8.00e-01,-2.60e-02,
583,-2.00e-01,-3.40e-02,
584,-8.00e-01,-2.80e-02,
585,-2.00e-01,-3.40e-02,
586,-6.00e-01,-3.60e-02,
587,-2.00e-01,-2.80e-02,
588,-2.00e-01,-3.60e-02,
589,-6.00e-01,-2.80e-02,
590,-6.00e-01,-2.80e-02,
591,-2.00e-01,-3.60e-02,
592,-6.00e-01,-3.80e-02,
593,-2.00e-01,-2.80e-02,
594,0.00e+00,-3.00e-02,
595,-6.00e-01,-3.80e-02,
596,0.00e+00,-3.00e-02,
597,-6.00e-01,-3.80e-02,
598,-4.00e-01,-3.00e-02,
599,0.00e+00,-4.00e-02,
600,0.00e+00,-3.20e-02,
601,-4.00e-01,-4.00e-02,
602,-4.00e-01,-4.00e-02,
603,2.00e-01,-3.20e-02,
604,2.00e-01,-3.20e-02,
605,-4.00e-01,-4.00e-02,
606,-2.00e-01,-4.00e-02,
607,2.00e-01,-3.20e-02,
608,2.00e-01,-4.00e-02,
609,-2.00e-01,-3.40e-02,
610,2.00e-01,-3.40e-02,
611,-2.00e-01,-4.20e-02,
612,-2.00e-01,-4.20e-02,
613,2.00e-01,-3.40e-02,
614,-2.00e-01,-3.40e-02,
615,4.00e-01,-4.20e-02,
616,4.00e-01,-3.40e-02,
617,0.00e+00,-4.20e-02,
618,4.00e-01,-4.20e-02,
619,0.00e+00,-3.40e-02,
620,0.00e+00,-3.60e-02,
621,6.00e-01,-4.20e-02,
622,0.00e+00,-3.60e-02,
623,6.00e-01,-4.40e-02,
624,0.00e+00,-3.60e-02,
625,6.00e-01,-4.60e-02,
626,6.00e-01,-3.60e-02,
627,2.00e-01,-4.40e-02,
628,6.00e-01,-4.60e-02,
629,2.00e-01,-3.60e-02,
630,2.00e-01,-3.80e-02,
631,8.00e-01,-4.60e-02,
632,2.00e-01,-4.80e-02,
633,8.00e-01,-3.60e-02,
634,2.00e-01,-4.60e-02,
635,8.00e-01,-3.60e-02,
636,8.00e-01,-3.60e-02,
637,2.00e-01,-4.60e-02,
638,8.00e-01,-4.60e-02,
639,4.00e-01,-3.60e-02,
640,8.00e-01,-3.80e-02,
641,4.00e-01,-4.60e-02,
642,4.00e-01,-4.60e-02,
643,1.00e+00,-3.80e-02,
644,4.00e-01,-3.80e-02,
645,1.00e+00,-4.60e-02,
646,1.00e+00,-3.80e-02,
647,4.00e-01,-4.60e-02,
648,1.00e+00,-3.80e-02,
649,6.00e-01,-4.60e-02,
650,1.00e+00,-3.80e-02,
651,6.00e-01,-4.60e-02,
652,6.00e-01,-4.60e-02,
653,1.20e+00,-3.80e-02,
654,1.00e+00,-3.60e-02,
655,6.00e-01,-4.60e-02,
656,6.00e-01,-4.60e-02,
657,1.20e+00,-3.60e-02,
658,6.00e-01,-3.80e-02,
659,1.20e+00,-4.60e-02,
660,8.00e-01,-4.60e-02,
661,1.20e+00,-3.60e-02,
662,1.20e+00,-3.60e-02,
663,8.00e-01,-4.40e-02,
664,8.00e-01,-4.40e-02,
665,1.40e+00,-3.60e-02,
666,1.20e+00,-4.40e-02,
667,8.00e-01,-3.40e-02,
668,1.40e+00,-4.40e-02,
669,8.00e-01,-3.40e-02,
670,8.00e-01,-4.40e-02,
671,1.60e+00,-3.40e-02,
672,1.60e+00,-4.20e-02,
673,8.00e-01,-3.40e-02,
674,1.60e+00,-4.20e-02,
675,1.00e+00,-3.40e-02,
676,1.20e+00,-4.00e-02,
677,1.60e+00,-3.40e-02,
678,1.20e+00,-4.00e-02,
679,1.60e+00,-3.40e-02,
680,1.20e+00,-3.40e-02,
681,1.60e+00,-4.00e-02,
682,1.20e+00,-3.20e-02,
683,1.80e+00,-4.00e-02,
684,1.20e+00,-3.20e-02,
685,1.80e+00,-4.00e-02,
686,1.20e+00,-3.00e-02,
687,1.80e+00,-3.80e-02,
688,1.80e+00,-3.00e-02,
689,1.20e+00,-3.80e-02,
690,1.80e+00,-3.80e-02,
691,1.20e+00,-3.00e-02,
692,1.80e+00,-3.60e-02,
693,1.20e+00,-3.00e-02,
694,1.80e+00,-2.80e-02,
695,1.20e+00,-3.80e-02,
696,1.80e+00,-2.80e-02,
697,1.20e+00,-3.60e-02,
698,1.40e+00,-3.60e-02,
699,1.80e+00,-2.80e-02,
700,1.40e+00,-2.80e-02,
701,1.80e+00,-3.40e-02,
702,1.40e+00,-2.60e-02,
703,1.80e+00,-3.40e-02,
704,1.40e+00,-3.20e-02,
705,1.80e+00,-2.40e-02,
706,2.00e+00,-3.20e-02,
707,1.40e+00,-2.40e-02,
708,1.40e+00,-3.20e-02,
709,1.80e+00,-2.40e-02,
710,1.40e+00,-3.00e-02,
711,2.00e+00,-2.00e-02,
712,1.40e+00,-3.00e-02,
713,2.00e+00,-2.20e-02,
714,1.40e+00,-2.00e-02,
715,2.00e+00,-3.00e-02,
716,1.40e+00,-2.80e-02,
717,2.00e+00,-1.80e-02,
718,2.00e+00,-2.60e-02,
719,1.40e+00,-1.80e-02,
720,2.00e+00,-1.80e-02,
721,1.40e+00,-2.40e-02,
722,1.40e+00,-2.60e-02,
723,2.00e+00,-1.60e-02,
724,1.60e+00,-2.20e-02,
725,2.00e+00,-1.40e-02,
726,2.00e+00,-1.40e-02,
727,1.40e+00,-2.20e-02,
728,2.00e+00,-2.20e-02,
729,1.40e+00,-1.40e-02,
730,2.00e+00,-2.00e-02,
731,1.40e+00,-1.20e-02,
732,2.00e+00,-1.20e-02,
733,1.40e+00,-2.00e-02,
734,1.40e+00,-2.00e-02,
735,2.00e+00,-1.00e-02,
736,1.40e+00,-1.80e-02,
737,2.00e+00,-1.00e-02,
738,1.40e+00,-1.00e-02,
739,2.00e+00,-1.80e-02,
740,1.40e+00,-1.60e-02,
741,2.00e+00,-8.00e-03,
742,2.00e+00,-8.00e-03,
743,1.40e+00,-1.60e-02,
744,1.40e+00,-1.40e-02,
745,2.00e+00,-6.00e-03,
746,1.40e+00,-1.40e-02,
747,2.00e+00,-6.00e-03,
748,1.40e+00,-1.20e-02,
749,1.80e+00,-4.00e-03,
750,1.80e+00,-1.20e-02,
751,1.40e+00,-4.00e-03,
752,1.40e+00,-4.00e-03,
753,1.80e+00,-1.20e-02,
754,1.40e+00,-1.00e-02,
755,1.80e+00,0.00e+00,
756,1.40e+00,-8.00e-03,
757,1.80e+00,0.00e+00,
758,1.80e+00,-8.00e-03,
759,1.40e+00,2.00e-03,
760,1.40e+00,-6.00e-03,
761,1.80e+00,2.00e-03,
762,1.40e+00,-4.00e-03,
763,1.80e+00,4.00e-03,
764,1.80e+00,-4.00e-03,
765,1.20e+00,6.00e-03,
766,1.80e+00,-2.00e-03,
767,1.20e+00,6.00e-03,
768,1.80e+00,0.00e+00,
769,1.20e+00,8.00e-03,
770,1.20e+00,0.00e+00,
771,1.80e+00,8.00e-03,
772,1.60e+00,2.00e-03,
773,1.20e+00,1.00e-02,
774,1.60e+00,2.00e-03,
775,1.20e+00,1.00e-02,
776,1.20e+00,4.00e-03,
777,1.80e+00,1.00e-02,
778,1.20e+00,4.00e-03,
779,1.60e+00,1.20e-02,
780,1.20e+00,6.00e-03,
781,1.60e+00,1.40e-02,
782,1.60e+00,6.00e-03,
783,1.00e+00,1.40e-02,
784,1.60e+00,1.40e-02,
785,1.00e+00,8.00e-03,
786,1.40e+00,8.00e-03,
787,8.00e-01,1.60e-02,
788,8.00e-01,1.60e-02,
789,1.40e+00,1.00e-02,
790,1.40e+00,1.00e-02,
791,8.00e-01,2.00e-02,
792,8.00e-01,1.20e-02,
793,1.40e+00,2.00e-02,
794,8.00e-01,1.20e-02,
795,1.40e+00,2.00e-02,
796,1.40e+00,1.40e-02,
797,6.00e-01,2.20e-02,
798,1.40e+00,1.60e-02,
799,6.00e-01,2.40e-02,
800,1.20e+00,1.60e-02,
801,6.00e-01,2.40e-02,
802,1.20e+00,1.80e-02,
803,6.00e-01,2.60e-02,
804,1.20e+00,1.80e-02,
805,6.00e-01,2.60e-02,
806,1.00e+00,2.00e-02,
807,6.00e-01,2.80e-02,
808,4.00e-01,2.00e-02,
809,1.00e+00,2.80e-02,
810,1.00e+00,2.80e-02,
811,4.00e-01,2.00e-02,
812,1.00e+00,2.20e-02,
813,4.00e-01,3.00e-02,
814,4.00e-01,2.40e-02,
815,1.00e+00,3.00e-02,
816,4.00e-01,2.40e-02,
817,8.00e-01,3.00e-02,
818,8.00e-01,3.20e-02,
819,4.00e-01,2.40e-02,
820,8.00e-01,2.40e-02,
821,2.00e-01,3.40e-02,
822,8.00e-01,2.60e-02,
823,2.00e-01,3.40e-02,
824,8.00e-01,2.80e-02,
825,2.00e-01,3.40e-02,
826,8.00e-01,2.80e-02,
827,2.00e-01,3.60e-02,
828,6.00e-01,3.60e-02,
829,2.00e-01,2.80e-02,
830,6.00e-01,2.80e-02,
831,2.00e-01,4.00e-02,
832,6.00e-01,3.80e-02,
833,0.00e+00,3.00e-02,
834,0.00e+00,3.20e-02,
