Exp_1000.csv

X,CH1,CH2,Start,Increment,
Sequence,Volt,Volt,-1.200000e-03,2.000000e-06
0,-1.56e-01,-3.60e-02,
1,-1.48e-01,-5.20e-02,
2,-1.56e-01,-4.00e-02,
3,-1.48e-01,-5.60e-02,
4,-1.52e-01,-4.40e-02,
5,-1.48e-01,-6.00e-02,
6,-1.52e-01,-6.00e-02,
7,-1.44e-01,-4.80e-02,
8,-1.52e-01,-4.80e-02,
9,-1.44e-01,-6.40e-02,
10,-1.48e-01,-6.80e-02,
11,-1.44e-01,-5.20e-02,
12,-1.48e-01,-5.60e-02,
13,-1.40e-01,-7.20e-02,
14,-1.48e-01,-5.60e-02,
15,-1.40e-01,-7.60e-02,
16,-1.44e-01,-7.60e-02,
17,-1.36e-01,-6.40e-02,
18,-1.44e-01,-6.40e-02,
19,-1.36e-01,-8.40e-02,
20,-1.40e-01,-7.20e-02,
21,-1.32e-01,-8.80e-02,
22,-1.32e-01,-7.20e-02,
23,-1.40e-01,-9.20e-02,
24,-1.36e-01,-7.60e-02,
25,-1.28e-01,-9.60e-02,
26,-1.28e-01,-8.00e-02,
27,-1.36e-01,-9.60e-02,
28,-1.32e-01,-8.40e-02,
29,-1.24e-01,-1.00e-01,
30,-1.24e-01,-1.00e-01,
31,-1.32e-01,-8.40e-02,
32,-1.28e-01,-1.04e-01,
33,-1.20e-01,-8.80e-02,
34,-1.20e-01,-9.20e-02,
35,-1.24e-01,-1.08e-01,
36,-1.24e-01,-1.08e-01,
37,-1.12e-01,-9.20e-02,
38,-1.16e-01,-1.12e-01,
39,-1.08e-01,-9.60e-02,
40,-1.16e-01,-1.00e-01,
41,-1.08e-01,-1.16e-01,
42,-1.12e-01,-1.00e-01,
43,-1.04e-01,-1.24e-01,
44,-1.08e-01,-1.04e-01,
45,-1.00e-01,-1.24e-01,
46,-1.08e-01,-1.24e-01,
47,-1.00e-01,-1.04e-01,
48,-1.04e-01,-1.12e-01,
49,-9.60e-02,-1.28e-01,
50,-1.00e-01,-1.12e-01,
51,-9.20e-02,-1.28e-01,
52,-1.00e-01,-1.16e-01,
53,-8.80e-02,-1.28e-01,
54,-8.80e-02,-1.16e-01,
55,-9.60e-02,-1.32e-01,
56,-9.20e-02,-1.20e-01,
57,-8.40e-02,-1.36e-01,
58,-8.80e-02,-1.20e-01,
59,-7.60e-02,-1.36e-01,
60,-8.00e-02,-1.20e-01,
61,-7.20e-02,-1.40e-01,
62,-8.00e-02,-1.24e-01,
63,-7.20e-02,-1.40e-01,
64,-6.80e-02,-1.24e-01,
65,-7.60e-02,-1.44e-01,
66,-7.20e-02,-1.28e-01,
67,-6.40e-02,-1.44e-01,
68,-6.80e-02,-1.28e-01,
69,-6.00e-02,-1.44e-01,
70,-6.80e-02,-1.28e-01,
71,-5.60e-02,-1.48e-01,
72,-6.40e-02,-1.32e-01,
73,-5.20e-02,-1.48e-01,
74,-6.00e-02,-1.32e-01,
75,-4.80e-02,-1.48e-01,
76,-5.60e-02,-1.36e-01,
77,-4.40e-02,-1.52e-01,
78,-5.20e-02,-1.36e-01,
79,-4.00e-02,-1.52e-01,
80,-4.40e-02,-1.52e-01,
81,-3.60e-02,-1.36e-01,
82,-4.00e-02,-1.52e-01,
83,-3.20e-02,-1.36e-01,
84,-4.00e-02,-1.52e-01,
85,-2.80e-02,-1.36e-01,
86,-3.60e-02,-1.36e-01,
87,-2.40e-02,-1.56e-01,
88,-3.20e-02,-1.40e-01,
89,-2.00e-02,-1.60e-01,
90,-2.80e-02,-1.40e-01,
91,-1.60e-02,-1.56e-01,
92,-2.40e-02,-1.40e-01,
93,-1.20e-02,-1.56e-01,
94,-1.20e-02,-1.56e-01,
95,-2.00e-02,-1.40e-01,
96,-1.60e-02,-1.40e-01,
97,-4.00e-03,-1.60e-01,
98,-1.20e-02,-1.60e-01,
99,0.00e+00,-1.40e-01,
100,-8.00e-03,-1.60e-01,
101,4.00e-03,-1.40e-01,
102,-4.00e-03,-1.60e-01,
103,8.00e-03,-1.40e-01,
104,0.00e+00,-1.40e-01,
105,1.20e-02,-1.60e-01,
106,4.00e-03,-1.40e-01,
107,1.60e-02,-1.60e-01,
108,8.00e-03,-1.40e-01,
109,2.00e-02,-1.60e-01,
110,1.20e-02,-1.60e-01,
111,2.40e-02,-1.40e-01,
112,1.60e-02,-1.56e-01,
113,3.20e-02,-1.40e-01,
114,2.00e-02,-1.60e-01,
115,3.60e-02,-1.36e-01,
116,2.80e-02,-1.56e-01,
117,4.00e-02,-1.36e-01,
118,4.00e-02,-1.52e-01,
119,2.80e-02,-1.36e-01,
120,3.20e-02,-1.52e-01,
121,4.40e-02,-1.36e-01,
122,3.60e-02,-1.52e-01,
123,4.80e-02,-1.36e-01,
124,4.00e-02,-1.52e-01,
125,5.20e-02,-1.36e-01,
126,4.40e-02,-1.48e-01,
127,5.60e-02,-1.32e-01,
128,4.40e-02,-1.48e-01,
129,6.00e-02,-1.32e-01,
130,4.80e-02,-1.32e-01,
131,6.40e-02,-1.48e-01,
132,5.60e-02,-1.28e-01,
133,7.20e-02,-1.48e-01,
134,5.60e-02,-1.28e-01,
135,7.20e-02,-1.48e-01,
136,6.40e-02,-1.28e-01,
137,7.60e-02,-1.44e-01,
138,6.80e-02,-1.24e-01,
139,8.00e-02,-1.40e-01,
140,6.80e-02,-1.24e-01,
141,8.40e-02,-1.40e-01,
142,7.20e-02,-1.40e-01,
143,8.40e-02,-1.20e-01,
144,8.80e-02,-1.20e-01,
145,7.60e-02,-1.36e-01,
146,8.00e-02,-1.20e-01,
147,9.20e-02,-1.36e-01,
148,8.00e-02,-1.32e-01,
149,9.60e-02,-1.16e-01,
150,9.60e-02,-1.32e-01,
151,8.40e-02,-1.12e-01,
152,1.00e-01,-1.28e-01,
153,8.80e-02,-1.12e-01,
154,8.80e-02,-1.12e-01,
155,1.08e-01,-1.28e-01,
156,9.20e-02,-1.08e-01,
157,1.12e-01,-1.24e-01,
158,1.00e-01,-1.24e-01,
159,1.12e-01,-1.00e-01,
160,1.16e-01,-1.24e-01,
161,9.60e-02,-1.00e-01,
162,1.04e-01,-1.00e-01,
163,1.20e-01,-1.20e-01,
164,1.08e-01,-9.60e-02,
165,1.20e-01,-1.12e-01,
166,1.08e-01,-9.20e-02,
167,1.24e-01,-1.12e-01,
168,1.12e-01,-9.20e-02,
169,1.28e-01,-1.08e-01,
170,1.28e-01,-1.04e-01,
171,1.16e-01,-8.80e-02,
172,1.16e-01,-1.00e-01,
173,1.32e-01,-8.40e-02,
174,1.32e-01,-8.40e-02,
175,1.20e-01,-1.00e-01,
176,1.36e-01,-9.60e-02,
177,1.20e-01,-8.00e-02,
178,1.36e-01,-9.20e-02,
179,1.24e-01,-7.60e-02,
180,1.24e-01,-7.60e-02,
181,1.40e-01,-8.80e-02,
182,1.28e-01,-8.80e-02,
183,1.44e-01,-6.80e-02,
184,1.28e-01,-8.40e-02,
185,1.48e-01,-6.40e-02,
186,1.32e-01,-8.00e-02,
187,1.48e-01,-6.40e-02,
188,1.36e-01,-6.00e-02,
189,1.52e-01,-7.60e-02,
190,1.52e-01,-7.20e-02,
191,1.40e-01,-5.60e-02,
192,1.52e-01,-6.80e-02,
193,1.40e-01,-5.20e-02,
194,1.56e-01,-6.40e-02,
195,1.40e-01,-4.80e-02,
196,1.56e-01,-4.80e-02,
197,1.44e-01,-6.00e-02,
198,1.44e-01,-6.00e-02,
199,1.56e-01,-4.40e-02,
200,1.44e-01,-5.60e-02,
201,1.60e-01,-4.00e-02,
202,1.60e-01,-5.20e-02,
203,1.44e-01,-3.60e-02,
204,1.48e-01,-4.80e-02,
205,1.60e-01,-3.20e-02,
206,1.48e-01,-4.40e-02,
207,1.60e-01,-2.80e-02,
208,1.48e-01,-4.00e-02,
209,1.64e-01,-2.40e-02,
210,1.64e-01,-3.60e-02,
211,1.48e-01,-2.00e-02,
212,1.48e-01,-3.20e-02,
213,1.64e-01,-1.60e-02,
214,1.48e-01,-2.80e-02,
215,1.64e-01,-1.20e-02,
216,1.64e-01,-2.40e-02,
217,1.52e-01,-8.00e-03,
218,1.64e-01,-2.00e-02,
219,1.52e-01,-8.00e-03,
220,1.64e-01,-2.00e-02,
221,1.52e-01,0.00e+00,
222,1.52e-01,-1.60e-02,
223,1.68e-01,0.00e+00,
224,1.64e-01,-1.20e-02,
225,1.52e-01,8.00e-03,
226,1.52e-01,-8.00e-03,
227,1.68e-01,1.20e-02,
228,1.52e-01,1.20e-02,
229,1.64e-01,-4.00e-03,
230,1.52e-01,4.00e-03,
231,1.64e-01,1.60e-02,
232,1.52e-01,8.00e-03,
233,1.64e-01,2.00e-02,
234,1.52e-01,8.00e-03,
235,1.64e-01,2.40e-02,
236,1.52e-01,1.20e-02,
237,1.64e-01,2.80e-02,
238,1.64e-01,1.60e-02,
239,1.48e-01,3.20e-02,
240,1.64e-01,2.00e-02,
241,1.48e-01,3.60e-02,
242,1.64e-01,2.40e-02,
243,1.48e-01,3.60e-02,
244,1.48e-01,2.80e-02,
245,1.64e-01,4.00e-02,
246,1.60e-01,3.20e-02,
247,1.48e-01,4.80e-02,
248,1.60e-01,3.20e-02,
249,1.44e-01,5.20e-02,
250,1.44e-01,4.00e-02,
251,1.60e-01,5.60e-02,
252,1.60e-01,4.40e-02,
253,1.44e-01,6.00e-02,
254,1.44e-01,6.00e-02,
255,1.56e-01,4.80e-02,
256,1.56e-01,5.20e-02,
257,1.40e-01,6.40e-02,
258,1.40e-01,6.80e-02,
259,1.56e-01,5.60e-02,
260,1.52e-01,5.60e-02,
261,1.40e-01,7.20e-02,
262,1.36e-01,6.00e-02,
263,1.52e-01,7.60e-02,
264,1.48e-01,6.40e-02,
265,1.32e-01,7.60e-02,
266,1.44e-01,6.80e-02,
267,1.32e-01,8.00e-02,
268,1.44e-01,6.80e-02,
269,1.28e-01,8.80e-02,
270,1.44e-01,7.20e-02,
271,1.28e-01,9.20e-02,
272,1.40e-01,8.00e-02,
273,1.24e-01,9.20e-02,
274,1.36e-01,8.40e-02,
275,1.24e-01,9.60e-02,
276,1.36e-01,8.40e-02,
277,1.20e-01,9.60e-02,
278,1.32e-01,8.80e-02,
279,1.16e-01,1.00e-01,
280,1.16e-01,9.20e-02,
281,1.28e-01,1.04e-01,
282,1.28e-01,1.04e-01,
283,1.12e-01,9.20e-02,
284,1.12e-01,9.60e-02,
285,1.24e-01,1.08e-01,
286,1.24e-01,1.08e-01,
287,1.08e-01,1.00e-01,
288,1.20e-01,1.12e-01,
289,1.04e-01,1.00e-01,
290,1.04e-01,1.16e-01,
291,1.16e-01,1.04e-01,
292,1.16e-01,1.16e-01,
293,1.00e-01,1.04e-01,
294,1.12e-01,1.08e-01,
295,9.60e-02,1.24e-01,
296,1.08e-01,1.24e-01,
297,9.20e-02,1.12e-01,
298,1.04e-01,1.16e-01,
299,8.80e-02,1.28e-01,
300,1.00e-01,1.16e-01,
301,8.80e-02,1.32e-01,
302,9.60e-02,1.20e-01,
303,8.40e-02,1.32e-01,
304,9.20e-02,1.32e-01,
305,8.00e-02,1.24e-01,
306,9.20e-02,1.24e-01,
307,7.60e-02,1.36e-01,
308,8.80e-02,1.28e-01,
309,7.20e-02,1.36e-01,
310,7.20e-02,1.28e-01,
311,8.40e-02,1.40e-01,
312,8.00e-02,1.40e-01,
313,6.80e-02,1.28e-01,
314,7.60e-02,1.40e-01,
315,6.40e-02,1.32e-01,
316,7.60e-02,1.32e-01,
317,5.60e-02,1.44e-01,
318,5.60e-02,1.44e-01,
319,7.20e-02,1.32e-01,
320,6.40e-02,1.44e-01,
321,5.20e-02,1.36e-01,
322,6.00e-02,1.36e-01,
323,4.80e-02,1.48e-01,
324,5.60e-02,1.48e-01,
325,4.40e-02,1.36e-01,
326,5.20e-02,1.48e-01,
327,4.00e-02,1.40e-01,
328,5.20e-02,1.40e-01,
329,3.60e-02,1.48e-01,
330,4.80e-02,1.52e-01,
331,3.20e-02,1.40e-01,
332,4.40e-02,1.52e-01,
333,3.20e-02,1.40e-01,
334,4.00e-02,1.52e-01,
335,2.80e-02,1.44e-01,
336,3.60e-02,1.52e-01,
337,2.00e-02,1.44e-01,
338,3.20e-02,1.44e-01,
339,1.60e-02,1.56e-01,
340,2.40e-02,1.56e-01,
341,1.20e-02,1.44e-01,
342,2.00e-02,1.56e-01,
343,8.00e-03,1.44e-01,
344,1.60e-02,1.56e-01,
345,4.00e-03,1.44e-01,
346,1.60e-02,1.56e-01,
347,4.00e-03,1.48e-01,
348,1.20e-02,1.56e-01,
349,0.00e+00,1.44e-01,
350,8.00e-03,1.56e-01,
351,-4.00e-03,1.44e-01,
352,4.00e-03,1.56e-01,
353,-8.00e-03,1.48e-01,
354,0.00e+00,1.56e-01,
355,-1.60e-02,1.44e-01,
356,-8.00e-03,1.56e-01,
357,-2.00e-02,1.44e-01,
358,-1.20e-02,1.56e-01,
359,-2.40e-02,1.44e-01,
360,-1.60e-02,1.56e-01,
361,-2.80e-02,1.44e-01,
362,-2.00e-02,1.56e-01,
363,-2.80e-02,1.44e-01,
364,-3.20e-02,1.56e-01,
365,-2.40e-02,1.44e-01,
366,-2.80e-02,1.44e-01,
367,-3.60e-02,1.56e-01,
368,-3.20e-02,1.52e-01,
369,-4.00e-02,1.44e-01,
370,-3.60e-02,1.44e-01,
371,-4.40e-02,1.52e-01,
372,-3.60e-02,1.52e-01,
373,-5.20e-02,1.40e-01,
374,-4.00e-02,1.52e-01,
375,-5.60e-02,1.40e-01,
376,-4.80e-02,1.40e-01,
377,-5.60e-02,1.52e-01,
378,-6.00e-02,1.48e-01,
379,-5.20e-02,1.40e-01,
380,-5.60e-02,1.48e-01,
381,-6.40e-02,1.36e-01,
382,-6.00e-02,1.36e-01,
383,-6.80e-02,1.48e-01,
384,-6.40e-02,1.48e-01,
385,-7.20e-02,1.36e-01,
386,-6.40e-02,1.44e-01,
387,-7.60e-02,1.32e-01,
388,-6.80e-02,1.32e-01,
389,-7.60e-02,1.44e-01,
390,-7.20e-02,1.40e-01,
391,-8.00e-02,1.28e-01,
392,-7.60e-02,1.40e-01,
393,-8.80e-02,1.28e-01,
394,-8.40e-02,1.28e-01,
395,-9.20e-02,1.36e-01,
396,-8.40e-02,1.36e-01,
397,-9.20e-02,1.24e-01,
398,-8.80e-02,1.24e-01,
399,-9.60e-02,1.32e-01,
400,-9.20e-02,1.32e-01,
401,-1.00e-01,1.20e-01,
402,-9.60e-02,1.20e-01,
403,-1.04e-01,1.32e-01,
404,-1.04e-01,1.28e-01,
405,-9.60e-02,1.16e-01,
406,-1.00e-01,1.16e-01,
407,-1.08e-01,1.28e-01,
408,-1.04e-01,1.24e-01,
409,-1.12e-01,1.08e-01,
410,-1.12e-01,1.16e-01,
411,-1.04e-01,1.04e-01,
412,-1.08e-01,1.04e-01,
413,-1.16e-01,1.16e-01,
414,-1.12e-01,1.12e-01,
415,-1.20e-01,1.00e-01,
416,-1.20e-01,1.00e-01,
417,-1.12e-01,1.12e-01,
418,-1.20e-01,1.08e-01,
419,-1.28e-01,9.60e-02,
420,-1.24e-01,1.08e-01,
421,-1.28e-01,9.20e-02,
422,-1.24e-01,1.04e-01,
423,-1.32e-01,9.20e-02,
424,-1.28e-01,1.00e-01,
425,-1.36e-01,8.80e-02,
426,-1.28e-01,9.60e-02,
427,-1.36e-01,8.40e-02,
428,-1.32e-01,9.60e-02,
429,-1.40e-01,8.40e-02,
430,-1.40e-01,8.00e-02,
431,-1.32e-01,9.20e-02,
432,-1.36e-01,8.80e-02,
433,-1.44e-01,7.20e-02,
434,-1.44e-01,7.20e-02,
435,-1.36e-01,8.40e-02,
436,-1.44e-01,8.00e-02,
437,-1.40e-01,6.80e-02,
438,-1.40e-01,7.60e-02,
439,-1.48e-01,6.40e-02,
440,-1.48e-01,7.20e-02,
441,-1.44e-01,6.00e-02,
442,-1.44e-01,7.20e-02,
443,-1.52e-01,5.60e-02,
444,-1.52e-01,5.60e-02,
445,-1.44e-01,6.80e-02,
446,-1.52e-01,6.40e-02,
447,-1.48e-01,5.20e-02,
448,-1.48e-01,6.40e-02,
449,-1.56e-01,4.80e-02,
450,-1.56e-01,5.60e-02,
451,-1.48e-01,4.40e-02,
452,-1.52e-01,5.60e-02,
453,-1.56e-01,3.60e-02,
454,-1.56e-01,5.20e-02,
455,-1.52e-01,3.20e-02,
456,-1.52e-01,3.20e-02,
457,-1.60e-01,4.80e-02,
458,-1.64e-01,2.80e-02,
459,-1.52e-01,4.00e-02,
460,-1.56e-01,3.60e-02,
461,-1.64e-01,2.40e-02,
462,-1.60e-01,3.20e-02,
463,-1.64e-01,2.00e-02,
464,-1.60e-01,3.20e-02,
465,-1.64e-01,1.60e-02,
466,-1.64e-01,2.80e-02,
467,-1.60e-01,1.20e-02,
468,-1.60e-01,2.40e-02,
469,-1.64e-01,8.00e-03,
470,-1.60e-01,8.00e-03,
471,-1.64e-01,2.40e-02,
472,-1.60e-01,2.00e-02,
473,-1.68e-01,4.00e-03,
474,-1.68e-01,1.60e-02,
475,-1.60e-01,-4.00e-03,
476,-1.60e-01,8.00e-03,
477,-1.68e-01,-8.00e-03,
478,-1.60e-01,4.00e-03,
479,-1.68e-01,-1.20e-02,
480,-1.60e-01,0.00e+00,
481,-1.68e-01,-1.60e-02,
482,-1.60e-01,-4.00e-03,
483,-1.64e-01,-2.00e-02,
484,-1.60e-01,-2.00e-02,
485,-1.64e-01,-8.00e-03,
486,-1.60e-01,-2.40e-02,
487,-1.64e-01,-8.00e-03,
488,-1.60e-01,-1.20e-02,
489,-1.64e-01,-2.80e-02,
490,-1.64e-01,-1.60e-02,
491,-1.52e-01,-3.20e-02,
492,-1.64e-01,-2.00e-02,
493,-1.52e-01,-3.60e-02,
494,-1.64e-01,-2.40e-02,
495,-1.52e-01,-4.00e-02,
496,-1.56e-01,-4.40e-02,
497,-1.52e-01,-2.80e-02,
498,-1.56e-01,-3.20e-02,
499,-1.52e-01,-4.80e-02,
500,-1.56e-01,-3.60e-02,
501,-1.48e-01,-5.20e-02,
502,-1.56e-01,-4.00e-02,
503,-1.48e-01,-5.60e-02,
504,-1.52e-01,-4.40e-02,
505,-1.48e-01,-6.00e-02,
506,-1.52e-01,-4.40e-02,
507,-1.44e-01,-6.00e-02,
508,-1.52e-01,-4.80e-02,
509,-1.44e-01,-6.40e-02,
510,-1.48e-01,-5.20e-02,
511,-1.44e-01,-6.80e-02,
512,-1.48e-01,-5.60e-02,
513,-1.40e-01,-7.20e-02,
514,-1.40e-01,-6.00e-02,
515,-1.48e-01,-7.60e-02,
516,-1.44e-01,-6.40e-02,
517,-1.36e-01,-8.00e-02,
518,-1.36e-01,-6.40e-02,
519,-1.44e-01,-8.40e-02,
520,-1.40e-01,-6.80e-02,
521,-1.32e-01,-8.80e-02,
522,-1.32e-01,-8.80e-02,
523,-1.40e-01,-7.20e-02,
524,-1.36e-01,-7.60e-02,
525,-1.28e-01,-9.20e-02,
526,-1.28e-01,-8.00e-02,
527,-1.36e-01,-9.60e-02,
528,-1.32e-01,-8.40e-02,
529,-1.24e-01,-1.00e-01,
530,-1.24e-01,-1.00e-01,
531,-1.32e-01,-8.40e-02,
532,-1.28e-01,-8.80e-02,
533,-1.20e-01,-1.04e-01,
534,-1.28e-01,-8.80e-02,
535,-1.20e-01,-1.08e-01,
536,-1.20e-01,-9.20e-02,
537,-1.12e-01,-1.08e-01,
538,-1.16e-01,-9.60e-02,
539,-1.08e-01,-1.12e-01,
540,-1.16e-01,-1.12e-01,
541,-1.08e-01,-9.60e-02,
542,-1.12e-01,-1.00e-01,
543,-1.04e-01,-1.20e-01,
544,-1.08e-01,-1.04e-01,
545,-1.00e-01,-1.20e-01,
546,-1.00e-01,-1.24e-01,
547,-1.08e-01,-1.08e-01,
548,-1.04e-01,-1.08e-01,
549,-9.60e-02,-1.28e-01,
550,-1.00e-01,-1.12e-01,
551,-9.20e-02,-1.28e-01,
552,-1.00e-01,-1.16e-01,
553,-8.80e-02,-1.32e-01,
554,-8.80e-02,-1.16e-01,
555,-9.60e-02,-1.32e-01,
556,-9.20e-02,-1.20e-01,
557,-8.40e-02,-1.36e-01,
558,-8.80e-02,-1.20e-01,
559,-7.60e-02,-1.40e-01,
560,-8.00e-02,-1.24e-01,
561,-7.20e-02,-1.40e-01,
562,-8.00e-02,-1.40e-01,
563,-7.20e-02,-1.24e-01,
564,-7.60e-02,-1.24e-01,
565,-6.80e-02,-1.40e-01,
566,-7.20e-02,-1.28e-01,
567,-6.40e-02,-1.44e-01,
568,-6.80e-02,-1.44e-01,
569,-6.00e-02,-1.28e-01,
570,-6.80e-02,-1.32e-01,
571,-5.60e-02,-1.44e-01,
572,-6.40e-02,-1.48e-01,
573,-5.20e-02,-1.32e-01,
574,-5.20e-02,-1.32e-01,
575,-6.00e-02,-1.48e-01,
576,-4.80e-02,-1.32e-01,
577,-5.60e-02,-1.52e-01,
578,-4.00e-02,-1.32e-01,
579,-5.20e-02,-1.52e-01,
580,-4.40e-02,-1.52e-01,
581,-3.60e-02,-1.36e-01,
582,-4.40e-02,-1.36e-01,
583,-3.20e-02,-1.52e-01,
584,-4.00e-02,-1.36e-01,
585,-2.80e-02,-1.56e-01,
586,-3.60e-02,-1.56e-01,
587,-2.40e-02,-1.36e-01,
588,-3.20e-02,-1.56e-01,
589,-2.00e-02,-1.40e-01,
590,-2.80e-02,-1.40e-01,
591,-1.60e-02,-1.60e-01,
592,-2.40e-02,-1.40e-01,
593,-1.20e-02,-1.60e-01,
594,-2.00e-02,-1.40e-01,
595,-8.00e-03,-1.60e-01,
596,-1.60e-02,-1.40e-01,
597,-4.00e-03,-1.60e-01,
598,-1.20e-02,-1.40e-01,
599,0.00e+00,-1.60e-01,
600,4.00e-03,-1.60e-01,
601,-8.00e-03,-1.40e-01,
602,-4.00e-03,-1.40e-01,
603,8.00e-03,-1.60e-01,
604,0.00e+00,-1.60e-01,
605,1.20e-02,-1.40e-01,
606,4.00e-03,-1.40e-01,
607,1.60e-02,-1.60e-01,
608,8.00e-03,-1.40e-01,
609,2.00e-02,-1.60e-01,
610,1.20e-02,-1.40e-01,
611,2.40e-02,-1.60e-01,
612,1.60e-02,-1.56e-01,
613,2.80e-02,-1.36e-01,
614,3.20e-02,-1.60e-01,
615,2.00e-02,-1.40e-01,
616,2.40e-02,-1.56e-01,
617,3.60e-02,-1.40e-01,
618,2.80e-02,-1.36e-01,
619,4.00e-02,-1.52e-01,
620,3.20e-02,-1.52e-01,
621,4.40e-02,-1.36e-01,
622,3.60e-02,-1.36e-01,
623,4.80e-02,-1.52e-01,
624,4.00e-02,-1.36e-01,
625,5.20e-02,-1.52e-01,
626,4.40e-02,-1.36e-01,
627,5.60e-02,-1.52e-01,
628,4.80e-02,-1.48e-01,
629,6.00e-02,-1.32e-01,
630,4.80e-02,-1.32e-01,
631,6.40e-02,-1.48e-01,
632,5.20e-02,-1.32e-01,
633,7.20e-02,-1.48e-01,
634,5.60e-02,-1.44e-01,
635,7.20e-02,-1.28e-01,
636,7.60e-02,-1.28e-01,
637,6.40e-02,-1.44e-01,
638,6.80e-02,-1.44e-01,
639,8.00e-02,-1.24e-01,
640,6.80e-02,-1.40e-01,
641,8.40e-02,-1.24e-01,
642,7.20e-02,-1.40e-01,
643,8.80e-02,-1.20e-01,
644,7.60e-02,-1.40e-01,
645,8.80e-02,-1.20e-01,
646,9.20e-02,-1.36e-01,
647,8.00e-02,-1.20e-01,
648,8.00e-02,-1.32e-01,
649,9.60e-02,-1.16e-01,
650,8.40e-02,-1.16e-01,
651,1.00e-01,-1.28e-01,
652,1.00e-01,-1.28e-01,
653,8.80e-02,-1.12e-01,
654,9.20e-02,-1.24e-01,
655,1.08e-01,-1.08e-01,
656,9.20e-02,-1.24e-01,
657,1.08e-01,-1.04e-01,
658,1.00e-01,-1.24e-01,
659,1.12e-01,-1.04e-01,
660,1.04e-01,-1.20e-01,
661,1.16e-01,-1.00e-01,
662,1.04e-01,-1.00e-01,
663,1.20e-01,-1.16e-01,
664,1.08e-01,-1.12e-01,
665,1.20e-01,-9.60e-02,
666,1.08e-01,-1.12e-01,
667,1.24e-01,-9.20e-02,
668,1.12e-01,-1.08e-01,
669,1.28e-01,-9.20e-02,
670,1.28e-01,-1.04e-01,
671,1.16e-01,-8.80e-02,
672,1.16e-01,-8.80e-02,
673,1.32e-01,-1.00e-01,
674,1.32e-01,-1.00e-01,
675,1.20e-01,-8.40e-02,
676,1.20e-01,-9.60e-02,
677,1.36e-01,-8.00e-02,
678,1.36e-01,-8.00e-02,
679,1.24e-01,-9.20e-02,
680,1.40e-01,-9.20e-02,
681,1.24e-01,-7.60e-02,
682,1.44e-01,-8.80e-02,
683,1.28e-01,-6.80e-02,
684,1.44e-01,-8.40e-02,
685,1.28e-01,-6.80e-02,
686,1.32e-01,-8.00e-02,
687,1.48e-01,-6.40e-02,
688,1.32e-01,-7.60e-02,
689,1.52e-01,-6.00e-02,
690,1.52e-01,-7.20e-02,
691,1.36e-01,-5.60e-02,
692,1.40e-01,-6.80e-02,
693,1.52e-01,-5.20e-02,
694,1.40e-01,-6.40e-02,
695,1.56e-01,-4.80e-02,
696,1.44e-01,-4.80e-02,
697,1.56e-01,-6.00e-02,
698,1.44e-01,-6.00e-02,
699,1.60e-01,-4.40e-02,
700,1.44e-01,-5.60e-02,
701,1.60e-01,-4.00e-02,
702,1.60e-01,-5.20e-02,
703,1.44e-01,-3.60e-02,
704,1.48e-01,-4.80e-02,
705,1.60e-01,-3.20e-02,
706,1.48e-01,-4.80e-02,
707,1.64e-01,-2.80e-02,
708,1.48e-01,-4.00e-02,
709,1.64e-01,-2.40e-02,
710,1.64e-01,-3.60e-02,
711,1.52e-01,-2.00e-02,
712,1.52e-01,-3.20e-02,
713,1.64e-01,-1.60e-02,
714,1.64e-01,-2.80e-02,
715,1.52e-01,-1.20e-02,
716,1.64e-01,-2.40e-02,
717,1.52e-01,-1.20e-02,
718,1.52e-01,-2.40e-02,
719,1.64e-01,-8.00e-03,
720,1.52e-01,-2.00e-02,
721,1.64e-01,-4.00e-03,
722,1.52e-01,-1.60e-02,
723,1.68e-01,0.00e+00,
724,1.68e-01,-1.20e-02,
725,1.52e-01,4.00e-03,
726,1.52e-01,-8.00e-03,
727,1.68e-01,8.00e-03,
728,1.52e-01,1.20e-02,
729,1.64e-01,-4.00e-03,
730,1.64e-01,4.00e-03,
731,1.52e-01,1.60e-02,
732,1.52e-01,8.00e-03,
733,1.64e-01,2.00e-02,
734,1.64e-01,8.00e-03,
735,1.52e-01,2.40e-02,
736,1.64e-01,1.20e-02,
737,1.52e-01,2.80e-02,
738,1.64e-01,1.60e-02,
739,1.48e-01,3.20e-02,
740,1.64e-01,2.00e-02,
741,1.48e-01,3.20e-02,
742,1.64e-01,2.40e-02,
743,1.48e-01,3.60e-02,
744,1.48e-01,2.80e-02,
745,1.64e-01,4.00e-02,
746,1.48e-01,2.80e-02,
747,1.60e-01,4.80e-02,
748,1.60e-01,3.20e-02,
749,1.48e-01,5.20e-02,
750,1.60e-01,4.00e-02,
751,1.48e-01,5.60e-02,
752,1.60e-01,4.40e-02,
753,1.44e-01,5.60e-02,
754,1.44e-01,4.80e-02,
755,1.56e-01,6.00e-02,
756,1.56e-01,5.20e-02,
757,1.44e-01,6.40e-02,
758,1.52e-01,5.20e-02,
759,1.40e-01,6.80e-02,
760,1.52e-01,6.80e-02,
761,1.36e-01,5.60e-02,
762,1.52e-01,7.20e-02,
763,1.36e-01,6.00e-02,
764,1.36e-01,6.40e-02,
765,1.48e-01,7.60e-02,
766,1.48e-01,6.80e-02,
767,1.28e-01,8.00e-02,
768,1.48e-01,8.40e-02,
769,1.28e-01,6.80e-02,
770,1.44e-01,7.20e-02,
771,1.28e-01,8.80e-02,
772,1.40e-01,8.00e-02,
773,1.24e-01,9.20e-02,
774,1.36e-01,8.00e-02,
775,1.24e-01,9.60e-02,
776,1.36e-01,9.60e-02,
777,1.20e-01,8.40e-02,
778,1.32e-01,8.80e-02,
779,1.16e-01,1.00e-01,
780,1.32e-01,9.20e-02,
781,1.16e-01,1.04e-01,
782,1.28e-01,9.20e-02,
783,1.12e-01,1.08e-01,
784,1.24e-01,9.60e-02,
785,1.12e-01,1.08e-01,
786,1.24e-01,1.00e-01,
787,1.08e-01,1.12e-01,
788,1.08e-01,1.12e-01,
789,1.20e-01,1.00e-01,
790,1.04e-01,1.04e-01,
791,1.16e-01,1.16e-01,
792,1.16e-01,1.04e-01,
793,1.00e-01,1.20e-01,
794,1.00e-01,1.08e-01,
795,1.12e-01,1.24e-01,
796,1.08e-01,1.24e-01,
797,9.20e-02,1.12e-01,
798,1.04e-01,1.12e-01,
799,8.80e-02,1.28e-01,
800,1.00e-01,1.16e-01,
801,8.80e-02,1.28e-01,
802,8.40e-02,1.20e-01,
803,9.60e-02,1.32e-01,
804,9.60e-02,1.32e-01,
805,8.00e-02,1.24e-01,
806,9.20e-02,1.24e-01,
807,7.60e-02,1.36e-01,
808,8.80e-02,1.36e-01,
809,7.20e-02,1.28e-01,
810,7.20e-02,1.28e-01,
811,8.40e-02,1.40e-01,
812,8.00e-02,1.40e-01,
813,6.80e-02,1.28e-01,
814,7.60e-02,1.40e-01,
815,6.40e-02,1.28e-01,
816,7.60e-02,1.32e-01,
817,5.60e-02,1.44e-01,
818,7.20e-02,1.44e-01,
819,5.60e-02,1.32e-01,
820,6.40e-02,1.44e-01,
821,5.20e-02,1.36e-01,
822,6.00e-02,1.36e-01,
823,4.80e-02,1.48e-01,
824,5.60e-02,1.48e-01,
825,4.40e-02,1.36e-01,
826,5.20e-02,1.48e-01,
827,4.00e-02,1.40e-01,
828,5.20e-02,1.40e-01,
829,3.60e-02,1.52e-01,
830,4.80e-02,1.52e-01,
831,3.60e-02,1.40e-01,
832,4.40e-02,1.52e-01,
833,3.20e-02,1.44e-01,
834,4.00e-02,1.52e-01,
